^D:\2016 FALL\PIC 10C\ASSIGNMENT1\CARD_GAME\CARD_GAME\MAIN.CPP
D:\2016 FALL\PIC 10C\ASSIGNMENT1\CARD_GAME\CARD_GAME\DEBUG\VC120.PDB
D:\2016 FALL\PIC 10C\ASSIGNMENT1\CARD_GAME\CARD_GAME\DEBUG\VC120.IDB
D:\2016 FALL\PIC 10C\ASSIGNMENT1\CARD_GAME\CARD_GAME\DEBUG\MAIN.OBJ
